{
  "key": "atlassian-connect-spring-boot-data-mongo-it",
  "baseUrl": "http://localhost:8081",
  "name": "${add-on.name}",
  "authentication": {
    "type": "jwt"
  },
  "lifecycle": {
    "installed": "/installed",
    "uninstalled": "/uninstalled"
  }
}
